…
### Read in bib file as list

``` r
bib <- paperpile::parse_bib()
```

### Convert the list to a tibble

``` r
bib_tbl <- bib%>%
  bibble()

bib_tbl
#> # A tibble: 6,731 x 4
#>    rowid key         title                      author                     
#>    <int> <chr>       <chr>                      <chr>                      
#>  1     1 Miller2011… The highs and lows of can… Miller Lydia K and Devi La…
#>  2     2 Howlett200… Cannabinoid receptor sign… Howlett A C                
#>  3     3 Aggarwal20… Cannabinergic pain medici… Aggarwal Sunil K           
#>  4     4 Bi2019-yp   {Model-Informed} Drug Dev… Bi Youwei and Liu Jiang an…
#>  5     5 Gorovits20… Anti-drug Antibody Assay … Gorovits Boris and Wang Yi…
#>  6     6 Psioda2018… Bayesian design of a surv… Psioda Matthew A and Ibrah…
#>  7     7 Neuenschwa… Summarizing historical in… Neuenschwander Beat and Ca…
#>  8     8 Hobbs2012-… Commensurate Priors for I… Hobbs Brian P and Sargent …
#>  9     9 Psioda2019… Bayesian clinical trial d… Psioda Matthew A and Ibrah…
#> 10    10 Schmulson2… What Is New in Rome {IV}   Schmulson Max J and Drossm…
#> # … with 6,721 more rows
```
…
